{
  "resource": "Deposit",
  "resource_explanation": null,
  "http_method": "POST",
  "route": "/api/v1/deposits",
  "description": "Create deposit (invalid params)",
  "explanation": null,
  "parameters": [
    {
      "scope": "deposits",
      "required": true,
      "name": "amount",
      "description": "Amount"
    },
    {
      "required": true,
      "name": "payment_method_nonce",
      "description": "Payment method nonce"
    }
  ],
  "response_fields": [

  ],
  "requests": [
    {
      "request_method": "POST",
      "request_path": "/api/v1/deposits",
      "request_body": "deposits[amount]=10.0",
      "request_headers": {
        "Access-Token": "486e3e134c173985b581e85588a00c894df6aeb2",
        "Content-Type": "application/x-www-form-urlencoded"
      },
      "request_query_parameters": {
      },
      "request_content_type": "application/x-www-form-urlencoded",
      "response_status": 400,
      "response_status_text": "Bad Request",
      "response_body": "{\n  \"type\": \"BadRequest\",\n  \"message\": \"Something went wrong while processing your transaction. Please try again!\"\n}",
      "response_headers": {
        "Access-Token": "486e3e134c173985b581e85588a00c894df6aeb2",
        "Content-Type": "application/json; charset=utf-8"
      },
      "response_content_type": "application/json; charset=utf-8",
      "curl": "curl \"http://138.197.64.23:8080/api/v1/deposits\" -d 'deposits[amount]=10.0' -X POST \\\n\t-H \"Access-Token: 486e3e134c173985b581e85588a00c894df6aeb2\" \\\n\t-H \"Content-Type: application/x-www-form-urlencoded\""
    }
  ]
}