{
  "resource": "Users",
  "resource_explanation": null,
  "http_method": "PUT",
  "route": "/api/v1/users/update_profile",
  "description": "Update user profile (invalid params)",
  "explanation": null,
  "parameters": [
    {
      "scope": "user",
      "required": true,
      "name": "email",
      "description": "Email"
    },
    {
      "scope": "user",
      "required": true,
      "name": "username",
      "description": "Username"
    },
    {
      "scope": "user",
      "required": true,
      "name": "avatar",
      "description": "Avatar"
    },
    {
      "scope": "user",
      "required": true,
      "name": "statuss",
      "description": "Status"
    },
    {
      "scope": "user",
      "required": true,
      "name": "position",
      "description": "Position"
    }
  ],
  "response_fields": [

  ],
  "requests": [
    {
      "request_method": "PUT",
      "request_path": "/api/v1/users/update_profile",
      "request_body": "user[email]=",
      "request_headers": {
        "Access-Token": "ae294c0ceca29ea4bb03deb3bb873b153f15e69f",
        "Content-Type": "application/x-www-form-urlencoded"
      },
      "request_query_parameters": {
      },
      "request_content_type": "application/x-www-form-urlencoded",
      "response_status": 422,
      "response_status_text": "Unprocessable Entity",
      "response_body": "{\n  \"type\": \"UnprocessableEntity\",\n  \"message\": \"Email can't be blank; Email is invalid\"\n}",
      "response_headers": {
        "Access-Token": "ae294c0ceca29ea4bb03deb3bb873b153f15e69f",
        "Content-Type": "application/json; charset=utf-8"
      },
      "response_content_type": "application/json; charset=utf-8",
      "curl": "curl \"http://138.197.64.23:8080/api/v1/users/update_profile\" -d 'user[email]=' -X PUT \\\n\t-H \"Access-Token: ae294c0ceca29ea4bb03deb3bb873b153f15e69f\" \\\n\t-H \"Content-Type: application/x-www-form-urlencoded\""
    }
  ]
}